<?xml version="1.0" encoding="utf-8"?>
<!-- Generator: Adobe Illustrator 23.0.3, SVG Export Plug-In . SVG Version: 6.00 Build 0)  -->
<svg version="1.1" id="Calque_1" xmlns="http://www.w3.org/2000/svg" xmlns:xlink="http://www.w3.org/1999/xlink" x="0px" y="0px"
	 viewBox="0 0 595.28 841.89" style="enable-background:new 0 0 595.28 841.89;" xml:space="preserve">
<style type="text/css">
	.st0{fill:#231F20;}
	.st1{fill:#FFFFFF;}
	.st2{fill:#9D82A8;}
	.st3{fill:#020303;}
	.st4{fill:#030304;}
	.st5{fill:#0B0A0C;}
</style>
<g>
	<path class="st0" d="M263.19,404.23c2.79,6.21,7.89,9.07,13.9,10.71c5.06,1.38,9.84,3.36,13.99,6.65c1.21,0.96,2.33,2.03,3.29,3.21
		c0.32,0,0.31-0.24,0.38-0.4c2.21-4.89,5.64-8.71,10.19-11.53c0.61-0.38,0.61-0.55,0.19-1.13c-5.83-8.16-7.42-19.71,0.76-28.73
		c3.77-4.16,8.26-7.18,13.89-8.06c7.73-1.21,14.73,0.53,20.72,5.73c3.5,3.03,6.5,6.47,8.12,10.89c1.34,3.64,1.53,7.47,1.53,11.3
		c0,2.62-0.22,5.23-0.64,7.83c-0.2,1.23-0.72,2.34-1.13,3.49c-1.31,3.64-3.2,6.97-5.38,10.15c-1.07,1.56-2.45,2.86-3.73,4.25
		c-6.25,6.79-13.01,13.07-19.59,19.54c-6.92,6.8-13.91,13.52-20.87,20.27c-1.07,1.04-1.51,1.04-2.52,0.02
		c-14.03-14.16-28.14-28.25-42.06-42.52c-5.88-6.02-9.44-13.28-9.15-21.93c0.19-5.58,1.53-10.99,4.49-15.76
		c4.19-6.73,10.09-11.18,18.1-12.5c2.9-0.48,5.8-0.89,8.73-1.09c2.83-0.19,5.62,0.2,8.35,0.89c2.97,0.75,4.02,2.22,3.96,5.25
		c-0.03,1.67-0.09,3.35-0.08,5.02c0,1.06-0.14,2.08-0.69,3c-0.22,0.37-0.15,0.48,0.23,0.68c2.51,1.31,3.51,3.73,2.69,6.45
		c-0.2,0.65-0.58,1.18-1.19,1.53c-4.22,2.49-8.21,5.32-12.24,8.08c-2.73,1.87-5.69,1.8-8.72,1.01c-1.59-0.42-3.09-1.08-4.55-1.83
		C263.88,404.55,263.61,404.43,263.19,404.23z"/>
	<path class="st1" d="M337.88,426.85c-3.07,3.04-6.13,6.1-9.22,9.11c-10.15,9.9-20.31,19.77-30.45,29.67
		c-0.49,0.48-0.77,0.6-1.32,0.03c-3.42-3.54-6.89-7.04-10.34-10.55c-4.43-4.68-8.46-9.71-12.68-14.58
		c-3.99-4.61-7.94-9.25-11.91-13.88c-2.11-2.47-4.32-4.87-5.81-7.81c-1.3-2.57-1.89-5.36-2.37-8.16c-0.74-4.24-0.88-8.5,0.12-12.71
		c1.78-7.53,6.22-12.94,13.28-16.13c2.79-1.26,5.75-1.81,8.8-2.08c3.27-0.3,6.49,0.05,9.73,0.25c0.23,0.01,0.44,0.06,0.59,0.25
		c-0.03,1.89-0.05,3.79-0.1,5.68c-0.05,1.86-1.08,3.04-2.92,3.4c-0.46,0.09-0.94,0.14-1.41,0.19c-1.18,0.12-2.17,0.58-2.93,1.52
		c-0.86,1.06-1.9,1.94-3.13,2.55c-1.26,0.62-2.53,0.71-3.83,0.12c-0.99-0.45-1.19-0.89-0.75-1.87c0.71-1.55,1.77-2.85,3.17-3.82
		c1.11-0.77,2.33-1.38,3.68-1.67c0.78-0.17,1.17-0.66,1-1.44c-0.17-0.79-0.8-1.03-1.54-0.88c-1.86,0.38-3.53,1.23-5,2.37
		c-1.42,1.1-2.57,2.52-3.36,4.17c-1.19,2.48-0.38,4.47,2.17,5.47c2.1,0.81,4.09,0.48,6-0.57c1.21-0.66,2.26-1.52,3.11-2.59
		c0.57-0.71,1.26-1.01,2.11-1.06c0.79-0.04,1.55-0.26,2.31-0.47c1.19-0.34,2.27-0.02,3.13,0.82c0.86,0.84,0.76,1.95,0.54,3.03
		c-0.05,0.23-0.2,0.37-0.42,0.47c-3.27,1.61-6.14,3.84-9.17,5.84c-0.71,0.47-1.44,0.92-2.1,1.46c-2.28,1.84-4.81,2-7.51,1.22
		c-3.45-0.99-6.44-2.83-9.28-4.97c-1.05-0.79-1.72-0.89-2.23-0.27c-0.56,0.67-0.38,1.39,0.77,2.15c1.12,0.73,1.67,1.67,2.07,2.95
		c1.72,5.56,5.71,9.06,10.84,11.45c2.56,1.19,5.32,1.74,7.97,2.65c3.91,1.34,7.57,3.12,10.73,5.84c0.38,0.33,0.75,0.68,1.12,1.03
		c1.46,1.39,2.6,2.8,1.66,5.07c-0.48,1.16-0.45,2.54-0.43,3.84c0.01,0.94,0.47,1.52,1.22,1.47c0.87-0.06,1.17-0.63,1.18-1.42
		c0.02-0.98,0.04-1.96,0.27-2.92c0.76-2.09,2.17-3.75,3.61-5.36c2.5-2.8,5.48-5,8.9-6.56c0.51-0.23,1.01-0.67,1.66-0.4
		c1.26,2.66,2.1,5.44,2.5,8.35c0.16,1.18,0.99,1.77,1.83,1.27c0.6-0.36,0.65-0.93,0.56-1.57c-0.26-1.9-0.8-3.74-1.26-5.6
		c-0.88-4.58-2.05-9.1-3.11-13.64c-1.71-7.27-0.6-14.19,3.62-20.46c2.45-3.65,5.8-5.97,10.26-6.6c2.59-0.37,5.16-0.9,7.8-0.71
		c1.84,0.13,3.6,0.58,5.33,1.22c5.39,3.98,9.56,8.75,10.43,15.75c0.55,4.45,0.48,8.88-0.22,13.3c-0.37,2.29-1.5,4.33-2.33,6.47
		c-0.19,0.5-0.42,0.98-0.62,1.47c0.01,0.36-0.13,0.67-0.3,0.98c-1.45,2.75-3.33,5.2-5.4,7.51
		C338.35,426.67,338.17,426.86,337.88,426.85z"/>
	<path class="st2" d="M286.31,380.27c-2.87-0.14-5.73-0.47-8.61-0.37c-5.17,0.19-10.08,1.29-14.37,4.37
		c-5.59,4.01-8.8,9.46-9.62,16.29c-0.7,5.75,0.17,11.33,2.02,16.77c0.86,2.52,2.54,4.58,4.23,6.58c7,8.23,14.03,16.42,21.05,24.63
		c1.7,1.99,3.42,3.97,5.13,5.96c0.16,0.19,0.39,0.33,0.41,0.61c-1.53-1.27-2.82-2.78-4.22-4.19c-6.37-6.4-12.72-12.81-19.08-19.21
		c-2.67-2.68-5.34-5.36-8.01-8.04c-0.78-0.53-1.27-1.32-1.86-2.02c-1.02-1.38-2.09-2.72-2.89-4.24c-0.19-0.36-0.43-0.69-0.39-1.12
		c-1.1-2.72-2.03-5.48-2.45-8.41c-0.63-4.42,0.21-8.65,1.48-12.85c1.95-6.45,6.01-11.21,11.75-14.59c2.65-1.56,5.65-2.1,8.63-2.64
		c2.76-0.5,5.56-0.88,8.36-0.84c2.41,0.04,4.84,0.24,7.14,1.16C285.99,378.52,286.43,379.22,286.31,380.27z"/>
	<path class="st2" d="M336.97,381.01c-1.25-0.01-2.39-0.52-3.6-0.75c-2.75-0.52-5.46-0.19-8.18,0.28c-2.46,0.43-4.92,0.83-7.04,2.31
		c-3.92,2.73-6.18,6.59-7.55,11.04c-1.77,5.76-1.29,11.45,0.49,17.13c0.92,2.95,1.47,6,1.93,9.06c0.06,0.37,0.03,0.75,0.04,1.13
		c-0.83-1.97-1.56-3.98-2.63-5.85c-1-1.76-2.24-3.36-3.38-5.02c-4.2-6.1-6.12-12.79-3.05-19.84c3.48-7.99,9.72-12.74,18.61-13.49
		c4.59-0.39,8.88,0.81,12.92,2.94C336.07,380.22,336.62,380.49,336.97,381.01z"/>
	<path class="st2" d="M309.45,418.76c-6.05,2.28-10.56,6.37-13.87,11.86c-0.1,0.16-0.21,0.31-0.31,0.46
		c1.21-7.23,5.11-12.61,11.29-16.43c0.39-0.24,0.58-0.2,0.81,0.19C308.14,416.1,308.88,417.38,309.45,418.76z"/>
	<path class="st3" d="M337.88,426.85c2.49-2.68,4.62-5.61,6.33-8.85c0.97,1.11,0.03,1.93-0.47,2.75c-0.62,1.01-1.03,2.16-1.94,2.97
		c-0.06,0.05-0.1,0.17-0.09,0.26c0.11,1.62-1.25,2.02-2.25,2.71c-0.69,0.47-1.4,0.88-2.19,1.37
		C337.37,427.51,337.98,427.37,337.88,426.85z"/>
	<path class="st4" d="M250.1,416.29c0.96,1.88,2.23,3.56,3.45,5.27c0.14,0.38-0.22,0.43-0.39,0.6c-0.83,0.17-1.35-0.46-1.45-1.01
		c-0.26-1.37-0.94-2.52-1.49-3.75C250.06,417.05,249.72,416.7,250.1,416.29z"/>
	<path class="st5" d="M253.16,422.16c0.13-0.2,0.26-0.4,0.39-0.6c0.56,0.7,1.13,1.41,1.69,2.11c-0.7,0-0.88-0.7-1.34-1.02
		C253.65,422.48,253.52,422.16,253.16,422.16z"/>
</g>
</svg>
